\headcommand {\slideentry {0}{0}{1}{1/1}{}{0}}
\headcommand {\beamer@framepages {1}{1}}
\headcommand {\beamer@sectionpages {1}{1}}
\headcommand {\beamer@subsectionpages {1}{1}}
\headcommand {\sectionentry {1}{applied copulas}{2}{applied copulas}{0}}
\headcommand {\slideentry {1}{0}{1}{2/2}{}{0}}
\headcommand {\beamer@framepages {2}{2}}
\headcommand {\slideentry {1}{0}{2}{3/3}{}{0}}
\headcommand {\beamer@framepages {3}{3}}
\headcommand {\slideentry {1}{0}{2}{3/4}{}{0}}
\headcommand {\beamer@framepages {3}{4}}
\headcommand {\slideentry {1}{0}{2}{3/5}{}{0}}
\headcommand {\beamer@framepages {3}{5}}
\headcommand {\slideentry {1}{0}{3}{6/6}{}{0}}
\headcommand {\beamer@framepages {6}{6}}
\headcommand {\beamer@subsectionpages {2}{6}}
\headcommand {\beamer@subsectionentry {0}{1}{1}{7}{Rainfall IDF}}
\headcommand {\slideentry {1}{1}{1}{7/7}{Rainfall IDF}{0}}
\headcommand {\beamer@framepages {7}{7}}
\headcommand {\beamer@subsectionpages {7}{7}}
\headcommand {\beamer@subsectionentry {0}{1}{2}{8}{Point pattern counts}}
\headcommand {\slideentry {1}{2}{1}{8/8}{Point pattern counts}{0}}
\headcommand {\beamer@framepages {8}{8}}
\headcommand {\beamer@subsectionpages {8}{8}}
\headcommand {\beamer@subsectionentry {0}{1}{3}{9}{Biv. Sp. Copula}}
\headcommand {\slideentry {1}{3}{1}{9/9}{Biv. Sp. Copula}{0}}
\headcommand {\beamer@framepages {9}{9}}
\headcommand {\slideentry {1}{3}{2}{10/10}{Biv. Sp. Copula}{0}}
\headcommand {\beamer@framepages {10}{10}}
\headcommand {\beamer@subsectionpages {9}{10}}
\headcommand {\beamer@subsectionentry {0}{1}{4}{11}{Sp. Vine Copula}}
\headcommand {\slideentry {1}{4}{1}{11/11}{Sp. Vine Copula}{0}}
\headcommand {\beamer@framepages {11}{11}}
\headcommand {\slideentry {1}{4}{2}{12/12}{Sp. Vine Copula}{0}}
\headcommand {\beamer@framepages {12}{12}}
\headcommand {\slideentry {1}{4}{3}{13/13}{Sp. Vine Copula}{0}}
\headcommand {\beamer@framepages {13}{13}}
\headcommand {\slideentry {1}{4}{4}{14/14}{Sp. Vine Copula}{0}}
\headcommand {\beamer@framepages {14}{14}}
\headcommand {\beamer@subsectionpages {11}{14}}
\headcommand {\beamer@subsectionentry {0}{1}{5}{15}{Software}}
\headcommand {\slideentry {1}{5}{1}{15/15}{Software}{0}}
\headcommand {\beamer@framepages {15}{15}}
\headcommand {\beamer@sectionpages {2}{15}}
\headcommand {\beamer@subsectionpages {15}{15}}
\headcommand {\sectionentry {2}{Application to Nuclear Radiation}{16}{Application to Nuclear Radiation}{0}}
\headcommand {\beamer@subsectionpages {16}{15}}
\headcommand {\beamer@subsectionentry {0}{2}{1}{16}{Fitment}}
\headcommand {\slideentry {2}{1}{1}{16/16}{Fitment}{0}}
\headcommand {\beamer@framepages {16}{16}}
\headcommand {\slideentry {2}{1}{2}{17/17}{Fitment}{0}}
\headcommand {\beamer@framepages {17}{17}}
\headcommand {\slideentry {2}{1}{3}{18/18}{Fitment}{0}}
\headcommand {\beamer@framepages {18}{18}}
\headcommand {\slideentry {2}{1}{4}{19/19}{Fitment}{0}}
\headcommand {\beamer@framepages {19}{19}}
\headcommand {\slideentry {2}{1}{4}{19/20}{Fitment}{0}}
\headcommand {\beamer@framepages {19}{20}}
\headcommand {\slideentry {2}{1}{5}{21/21}{Fitment}{0}}
\headcommand {\beamer@framepages {21}{21}}
\headcommand {\beamer@subsectionpages {16}{21}}
\headcommand {\beamer@subsectionentry {0}{2}{2}{22}{Goodness of Fit}}
\headcommand {\slideentry {2}{2}{1}{22/22}{Goodness of Fit}{0}}
\headcommand {\beamer@framepages {22}{22}}
\headcommand {\slideentry {2}{2}{2}{23/23}{Goodness of Fit}{0}}
\headcommand {\beamer@framepages {23}{23}}
\headcommand {\slideentry {2}{2}{3}{24/24}{Goodness of Fit}{0}}
\headcommand {\beamer@framepages {24}{24}}
\headcommand {\slideentry {2}{2}{4}{25/25}{Goodness of Fit}{0}}
\headcommand {\beamer@framepages {25}{25}}
\headcommand {\beamer@sectionpages {16}{25}}
\headcommand {\beamer@subsectionpages {22}{25}}
\headcommand {\sectionentry {3}{Spatio-Temporal Copulas}{26}{Spatio-Temporal Copulas}{0}}
\headcommand {\slideentry {3}{0}{1}{26/26}{}{0}}
\headcommand {\beamer@framepages {26}{26}}
\headcommand {\slideentry {3}{0}{2}{27/27}{}{0}}
\headcommand {\beamer@framepages {27}{27}}
\headcommand {\beamer@subsectionpages {26}{27}}
\headcommand {\beamer@subsectionentry {0}{3}{1}{28}{Biv. Spatio-Temporal Copulas}}
\headcommand {\slideentry {3}{1}{1}{28/28}{Biv. Spatio-Temporal Copulas}{0}}
\headcommand {\beamer@framepages {28}{28}}
\headcommand {\beamer@subsectionpages {28}{28}}
\headcommand {\beamer@subsectionentry {0}{3}{2}{29}{Spatio-Temporal Vines}}
\headcommand {\slideentry {3}{2}{1}{29/29}{Spatio-Temporal Vines}{0}}
\headcommand {\beamer@framepages {29}{29}}
\headcommand {\slideentry {3}{2}{2}{30/30}{Spatio-Temporal Vines}{0}}
\headcommand {\beamer@framepages {30}{30}}
\headcommand {\beamer@sectionpages {26}{30}}
\headcommand {\beamer@subsectionpages {29}{30}}
\headcommand {\sectionentry {4}{Application}{31}{Application}{0}}
\headcommand {\beamer@subsectionpages {31}{30}}
\headcommand {\beamer@subsectionentry {0}{4}{1}{31}{Daily Mean $\rm {PM}_{10}$}}
\headcommand {\slideentry {4}{1}{1}{31/31}{Daily Mean $\rm {PM}_{10}$}{0}}
\headcommand {\beamer@framepages {31}{31}}
\headcommand {\slideentry {4}{1}{2}{32/32}{Daily Mean $\rm {PM}_{10}$}{0}}
\headcommand {\beamer@framepages {32}{32}}
\headcommand {\slideentry {4}{1}{3}{33/33}{Daily Mean $\rm {PM}_{10}$}{0}}
\headcommand {\beamer@framepages {33}{33}}
\headcommand {\slideentry {4}{1}{3}{33/34}{Daily Mean $\rm {PM}_{10}$}{0}}
\headcommand {\beamer@framepages {33}{34}}
\headcommand {\slideentry {4}{1}{3}{33/35}{Daily Mean $\rm {PM}_{10}$}{0}}
\headcommand {\beamer@framepages {33}{35}}
\headcommand {\slideentry {4}{1}{3}{33/36}{Daily Mean $\rm {PM}_{10}$}{0}}
\headcommand {\beamer@framepages {33}{36}}
\headcommand {\slideentry {4}{1}{4}{37/37}{Daily Mean $\rm {PM}_{10}$}{0}}
\headcommand {\beamer@framepages {37}{37}}
\headcommand {\slideentry {4}{1}{5}{38/38}{Daily Mean $\rm {PM}_{10}$}{0}}
\headcommand {\beamer@framepages {38}{38}}
\headcommand {\slideentry {4}{1}{6}{39/39}{Daily Mean $\rm {PM}_{10}$}{0}}
\headcommand {\beamer@framepages {39}{39}}
\headcommand {\beamer@sectionpages {31}{39}}
\headcommand {\beamer@subsectionpages {31}{39}}
\headcommand {\sectionentry {5}{Discussion}{40}{Discussion}{0}}
\headcommand {\slideentry {5}{0}{1}{40/40}{}{0}}
\headcommand {\beamer@framepages {40}{40}}
\headcommand {\slideentry {5}{0}{2}{41/41}{}{0}}
\headcommand {\beamer@framepages {41}{41}}
\headcommand {\beamer@sectionpages {40}{41}}
\headcommand {\beamer@subsectionpages {40}{41}}
\headcommand {\sectionentry {6}{Conclusion \& Outlook}{42}{Conclusion \& Outlook}{0}}
\headcommand {\slideentry {6}{0}{1}{42/42}{}{0}}
\headcommand {\beamer@framepages {42}{42}}
\headcommand {\slideentry {6}{0}{2}{43/43}{}{0}}
\headcommand {\beamer@framepages {43}{43}}
\headcommand {\beamer@sectionpages {42}{43}}
\headcommand {\beamer@subsectionpages {42}{43}}
\headcommand {\sectionentry {7}{Tasks}{44}{Tasks}{0}}
\headcommand {\slideentry {7}{0}{1}{44/44}{}{0}}
\headcommand {\beamer@framepages {44}{44}}
\headcommand {\beamer@partpages {1}{44}}
\headcommand {\beamer@subsectionpages {44}{44}}
\headcommand {\beamer@sectionpages {44}{44}}
\headcommand {\beamer@documentpages {44}}
\headcommand {\gdef \inserttotalframenumber {44}}
